<?xml version="1.0" encoding="utf-8"?>
<!-- Generated by IcoMoon.io -->
<!DOCTYPE svg PUBLIC "-//W3C//DTD SVG 1.1//EN" "http://www.w3.org/Graphics/SVG/1.1/DTD/svg11.dtd">
<svg version="1.1" xmlns="http://www.w3.org/2000/svg" xmlns:xlink="http://www.w3.org/1999/xlink" width="28" height="32" viewBox="0 0 28 32">
<path d="M25.969 3.969h-24c-1.105 0-2 0.895-2 2v20c0 1.105 0.895 2 2 2h24c1.105 0 2-0.895 2-2v-20c0-1.105-0.895-2-2-2zM3.969 17.969l4-4-4-4 2-2 6 6-6 6-2-2zM19.969 19.969h-8v-2h8v2z" fill="#444444"></path>
</svg>
